	title	publisher	publish_place	publish_date	publish_year
0	Robinson Crusoe	W. Darling, and J. Donaldson, London	Albany	1788	1788
1	Robinson Crusoe/ Robinson Crusoe	Harper	Paris	1789	1789
2	Robinson Crusoe = Robinson Crusoe	Dutton Juvenile	San Francisco	1781	January 22, 2001
3	Robinson Crusoe	Tip. Bera i Germanna	Dampierre	1782	May 1992
4	Robinson Crusoe.	Recorded Books, LLC	[Philadelphia]	1783	March 23, 2007
5	Robinson Crusoe	Distributed by Random House	Peterborough, Ont	1784	1781
6	Robinson Crusoe	Book Jungle	Venetik	1785	1782
7	Robinson Crusoe	Hippo	Liverpool	1787	1783
8	Robinson Crusoe	Thorndike Press	Dallas, Tex	1869	1784
9	Robinson Crusoe	Franklin Watts	Exeter [N.H.]	1868	1785
10	Robinson Crusoe	Allyn and Bacon	Madrid	1775	April 1995
11	Robinson Crusoe	Oneworld Classics	Richmond, U.K	1774	1787
12	Robinson Crusoe	Gedruckt bey Carl Cist, in der Rehs-Strasse, zwischen der Front- und Zweyten-Strasse.	Ann Arbor	1777	May 6, 2008
13	Robinson Crusoe	ReadHowYouWant.com	Newcastle	1770	1911
14	Robinson Crusoe	Evert Duyckinck	Brussels	1834	October 30, 1997
15	Robinson Crusoe	Mame et Cie	Wellington and Iron Bridge	1835	1910
16	Robinson Crusoe	R. Desilver and T. Desilver	Tʻai-pei shih	1940	February 4, 1972
17	Robinson Crusoe.	Puffin	Dublin	1839	January 1, 0001
18	Robinson Crusoe	I Surb Ghazar	Woodstock [Vt.]	1779	1775
19	Robinson Crusoe	Gérard	Baltimore [Md.]	1947	1774
20	Robinson Crusoe	printed for W. Taylor	Harmondsworth	1945	1777
21	Robinson Crusoe	Chez Bossange, Masson et Besson	Taibei Xian Zhonghe Shi	2011	June 4, 1992
22	Robinson Crusoe	D. Appleton & Co.	Chatham	2010	1770
23	Robinson Crusoe	BiblioBazaar	Cincinnati	1799	1834
24	Robinson Crusoe	Par G.E.J. M.A.L.	Mount Vernon, N. Y	1793	1835
25	Robinson Crusoe	DeWolfe & Fiske Co.	Chicago, Ill	1792	June 1, 1990
26	Robinson Crusoe	G.G. Harrap	Boston, New York [etc.]	1791	1940
27	Robinson Crusoe	Constable & Co.	München	1790	1839
28	Robinson Crusoe	Logographic P	Manchester	1797	1779
29	Robinson Crusoe	Altemus	[New York	1796	1947
30	Robinson Crusoe	Amsco School Pubns Inc	Maidenhead, [Eng.]	1795	1945
31	Robinson Crusoe	Collins	Oxford and New York	1794	March 25, 2008
32	Robinson Crusoe	Groombridge	Colorado Springs, Colo	1957	October 21, 2004
33	Robinson Crusoe	Barnes & Noble Classics	Windsor [Vt.]	1956	October 21, 1993
34	Robinson Crusoe	Amereon Limited	[London]	1951	June 1, 1995
35	Robinson Crusoe	MacMillan Publishing Company.	Printed at Worcester, Massachusetts	1950	2010
36	Robinson Crusoe	Crowell	Portland [Me.]	1953	1799
37	Robinson Crusoe.	Bickers and Bush	[Philadelphia	1952	January 1, 2000
38	Robinson Crusoe	printed by J. Sketchley, auctioner, &c.	Mineola, N.Y	1959	1793
39	Robinson Crusoe	Modern Library	Buffalo, NY	1958	1792
40	Robinson Crusoe	Arena	Edinburgh	1828	1791
41	Robinson Crusoe	Knopf	[Reading, Pa.]	1824	1790
42	Robinson Crusoe	Scott, Foresman	Moscow	1826	1797
43	Robinson Crusoe	Cassell, Petter, and Galpin	Verviers	1820	1796
44	Robinson Crusoe	Printed by Peter Stewart, west side of Second-Street, ninth door above Chesnut-Street.	New York	1823	1795
45	Robinson Crusoe	by I. Thomas and E.T. Andrews, Faust's Statue No 45 Newbury Street.	Boston (Franklin and Hawley Streets)	1768	1794
46	Robinson Crusoe	D. Lothrop and Company	Albany [N.Y.]	1870	1957
47	Robinson Crusoe	Published by J. Lumsden & Son ...	London	1920	1956
48	Robinson Crusoe	J. Langlumé et Peltier	Ware	1922	1951
49	Robinson Crusoe	Printed by Hurtin & Commardinger, for E. Duyckinck, & Co.	Providence [R.I.]	1923	1950
50	Robinson Crusoe	Scholastic	Congleton	1925	1953
51	Robinson Crusoe	printed by Valade's successors for H. M. Cazin]	Cooperstown [N.Y.]	1927	1952
52	Robinson Crusoe	Ginn, Heath, & co.	New-York	1929	May 5, 2006
53	Robinson Crusoe	Tyndale House Publishers	Stuttgart	1858	1959
54	Robinson Crusoe	Pomona Press	[New York]	1859	1958
55	Robinson Crusoe	[by Isaiah Thomas] and sold at the Worcester bookstore.	Londres [i.e. Paris	1719	1828
56	Robinson Crusoe	Printed and sold by George Forman	Chester	1853	April 7, 1987
57	Robinson Crusoe	J.M.Dent & Sons Ltd	Prince Frederick, MD	1854	1824
58	Robinson Crusoe	D. Appleton-Century company, incorporated	Cambridge	1878	March 1, 2005
59	Robinson Crusoe	Houghton Mifflin Company	Wheaton, Ill	1948	1826
60	Robinson Crusoe	Printed for William Woodhouse	Ammritasara	1931	September 27, 2007
61	Robinson Crusoe	A.L. Burt	Boston	1930	1820
62	Robinson Crusoe	London printed, Philadelphia reprinted by Charles Cist ...	[London?	1937	1823
63	Robinson Crusoe	G.W. Jacobs and Co.	Waiheke Island	1936	June 1997
64	Robinson Crusoe	Ward, Lock, and Co.	Wilmington [Del.]	1939	August 1999
65	Robinson Crusoe	Aladdin Paperbacks	Baile Áṫa Cliaṫ	1849	August 1996
66	Robinson Crusoe	Librairie d'éducation de Didier	Tours	1773	January 2006
67	Robinson Crusoe	Sine nomine	Garden City, New York	1736	1989
68	Robinson Crusoe	Listening Library	New Haven [Conn.]	1724	1908
69	Robinson Crusoe	Printed for W. Taylor	Moskva	1847	June 30, 1945
70	Robinson Crusoe	Focus on the Family Pub.	Fairfield	1720	January 22, 1996
71	Robinson Crusoe	Connradh na Gaedhilge	Ṿarshe	1941	April 1, 2003
72	Robinson Crusoe	Doubleday, Doran and company, inc.	Garden City, N. Y	1946	1920
73	Robinson Crusoe	Xiang yi chu ban she	Hong Kong	1876	March 2000
74	Robinson Crusoe	W W Norton & Co Ltd	[Paris]	1875	1922
75	Robinson Crusoe	Blackwell	Montpelier, Vt	1872	1923
76	Robinson Crusoe	printed by and for W. Darling	Toronto	1737	1925
77	Robinson Crusoe	Scholastic Book Services	New York [etc.]	1908	1927
78	Robinson Crusoe	Munroe & Francis	Charlottesville, Va	1909	1929
79	Robinson Crusoe	eBooksLib	Phil	1906	June 2, 2007
80	Robinson Crusoe	Audio Book Contractors, Inc.	Ottawa	1904	September 1985
81	Robinson Crusoe	Norilana Books	Franklin Center, Pennsylvania	1905	1858
82	Robinson Crusoe	Hart Pub. Co.	Windsor, Vt	1902	1859
83	Robinson Crusoe  	Diane Pub Co	Tainan Shi	1903	2011
84	Robinson Crusoe	From Sydney's Press for Increase Cooke & Co.	London [i.e. York?]	1900	November 2005
85	Robinson Crusoe	Tuttle Publishing	Printed at Boston	1901	1719
86	Robinson Crusoe	Vintage Books	Parisiis	1986	1853
87	Robinson Crusoe	Hurd and Houghton	New Orleans	1987	1854
88	Robinson Crusoe	Scribner	Birmingham	1984	September 10, 1981
89	Robinson Crusoe	Glasgow	[Boston]	1985	June 1978
90	Robinson Crusoe	Reagent Press Echo	Cleveland	1982	January 30, 2002
91	Robinson Crusoe	G.H. Doran	Halifax	1983	1900
92	Robinson Crusoe	printed for J. Fuller	[Neptune, N.J.?]	1980	June 1970
93	Robinson Crusoe	printed by W. Phorson	Ramat-Gan	1981	February 5, 2006
94	Robinson Crusoe	Éditions Bias	Newport [R.I.]	1735	November 2, 2007
95	Robinson Crusoe	Raphael Tuck and Son Ltd	Chicago	1988	March 11, 1982
96	An American Robinson Crusoe	Ċonnraḋ na Gaeḋilge	Philadelphia	1989	January 1, 2006
97	Aventures de Robinson Crusoe	Franklin Library	[London	1	January 13, 1994
98	Robinson Crusoe's money	G.W. Jacobs and Company	New York, NY	1808	1948
99	Robinson Crusoe, jr	J.M. Dent & Co.	Westport	1919	December 31, 1980
100		W. Taylor	Edina, Minn	1863	1931
101		Oxford University Press, USA	Glasgow	1862	1930
102		printed for A. Bettesworth and C. Hitch; R. Ware; and J. Hodges	New-Haven [Conn.]	1865	1937
103		printed for John Taylor	Oxford	1864	1936
104		Grosset & Dunlap	Berwick	1867	October 1999
105		Routledge, Warne	[Newburyport, Mass.]	1911	January 2001
106		D. Appleton	[Naples, Fla.]	1910	December 31, 1988
107		darulfikir 	Caernarfon	1913	January 1989
108		Longman Group United Kingdom	Leĭpt︠s︡ig	1818	1939
109		French & European Pubns	Waterville, Me	1915	January 1999
110		Henry Altemus	New York [etc]	1914	July 1996
111		Printed and sold by Jesse Cochran	Köln	1916	1849
112		Printed by Heaton & Williams	Baile Átha Cliath	1991	1773
113		Cosmopolitan book corporation	Milwaukee	1990	2000
114		McLoughlin	New York, N.Y	1993	1724
115		Printed by Thomas & William Bradford	Baltimore	1992	March 2004
116		T. Fisher Unwin	New Haven	1995	1847
117		Harper & Row	Portland, Or	1994	1720
118		printed by A. Donaldson and J. Reid: for Alexander Donaldson, and sold at his shops in London and Edinburgh	Phillipsburg, N.J	1997	February 1, 1988
119		George Bell and Sons	Leipzig	1996	June 1940
120		Playmore Inc. Publishers	México	1999	1919
121		Printed by B. Johnson	[London?]	1998	June 6, 2002
122		Wordsworth	Amsterdam	1800	1941
123		G. Richards	Franklin Center, Pa	1845	June 1, 2007
124		printed for the booksellers	Cologne	1744	June 2002
125		Planeta	Boston	1819	1946
126		F. Warne	Washington	1747	October 8, 2006
127		Fictionwise, Inc.	New York	1722	1876
128		Published by S. Babcock.	ʼEretrā	1899	March 3, 2005
129		Dover Publications	London	1894	1875
130		Raintree Childrens Books	San Francisco	1895	1872
131		Ward Lock Educational Co Ltd	London	1896	January 1996
132		Atheneum Books for Young Readers	Boston, Mass	1897	1870
133		Usborne Publishing Ltd	New York	1890	1909
134		Evans Brothers	Madrid, Spain	1892	1906
135		Doubleday and company, inc.	Praha	1814	September 1986
136		Printed for G. Douglas	Otley	1815	1904
137		Prentice Hall College Div	Boston	1816	1905
138		Printed for William Coke, Leith	London	1810	1902
139		M. A. Donohue	New York	1811	1903
140		Distributed by Crown Publishers	London	1812	1878
141		Didot	[S.n.]	1813	1901
142		Wordsworth Editions Ltd	Boston	1964	1986
143		The Floating Press	(Paris)	1965	1987
144		printed by Alexander Donaldson. Sold at his shop, London; and at Edinburgh	London	1966	1984
145		Ginn	London	1967	August 15, 1989
146		Paddington Press : distributed by Grosset & Dunlap	Paris	1960	1982
147		O.S. Felt, 1867	New York	1961	1983
148		printed by M. Angus & Son	Hemel Hempstead	1962	1980
149		printed for J. Brotherton and W. Meadows, S. Birt, C. Hitch and L. Hawes, J. Hodges, and J. Osborn	New Delhi	1963	1735
150		Harper & Brothers	New York]	1769	1737
151		H. Humphreys	New York	1755	1736
152		Odhams Press	Otley	1752	September 1, 2001
153		Heritage Press	London	1750	December 1, 2006
154		Printed and sold by John M'Culloch, no. 1, North Third-Street--	Brooklyn, N.Y	1889	March 1970
155		Khālasā Ṭraikaṭa Sosāiṭī	London	1888	1970
156		E. Nister	New Delhi	1968	March 12, 2007
157		by I. Thomas and E.T. Andrews, Faust's Statue no 45 Newbury Street.	Madrid	1885	2001
158		Printed and published by George Long	Cambridge	1884	November 3, 2006
159		McLoughlin Brothers	Madrid	1883	September 1995
160		Penguin Group USA, Inc.	Cambridge	1882	January 7, 2006
161		printed for T. Woodward	New Delhi	1880	1960
162		Pocket Books	San Diego, CA	1807	19uu
163		Juvenile Productions	Oxford	1806	1863
164		Greenwich House	New York	1805	1862
165		Baronet Books	San Diego, CA	1804	1865
166		F. Watts	Philadelphia	1803	1864
167		E.P. Dutton	London	1802	1867
168		Random House	Wheaton, Ill	1979	1869
169		Ann Arbor Media	New York, NY	1978	1868
170		J.M. Dent	London	1977	1913
171		ISIS Large Print Books	London	1976	1915
172		Edcon Pub Group	Edina, Minn	1975	1914
173		printed for C. Hitch; R. Ware; J. Hodges; S. Crowder, and H. Woodgate	West Haven, Conn	1974	1916
174		James Blackwood	Lincoln, Neb	1973	1991
175		BBC	Philadelphia	1972	1990
176		Gedruckt bey Conrad Zentler	Loughborough [Eng.]	1809	1993
177		Printed by Oliver Farnsworth	Madrid	1970	1992
178		Capricorn Press	Madrid, Spain	2002	1995
179		Bodley Head	New York	2003	1994
180		R. H. Russell	Stockholm	2000	1997
181		Aerie	[New York]	2001	1996
182		Shu hua chu ban gong si	New York	2006	1999
183		Oxford University Press	New York, NY	2007	1998
184		Barron's	Palo Alto, Calif	2004	1978
185		Macmillan	Boston	2005	May 1, 1961
186		Catedra	Morristown, N.J	2008	May 2000
187		Balduin Pick	New York, N.Y	2009	January 30, 2006
188		Noble and Noble	Wien	1765	1744
189		London, printed: Philadelphia, reprinted by Charles Cist, in Race-Street, between Front and Second-Streets	Boston	2000	1747
190		Moutardier	Paris	2014	1899
191		Printed by H.B.	New York	2006	March 5, 2006
192		Visor	Boston	2002	2003
193		Doubleday		2000	January 17, 2007
194		routledge		1996	1722
195		Cliffs Notes		1985	August 5, 1997
196		Choice Pub.		1988	July 1989
197		Printed for A. Millar, W. Law, and R. Cater; and for Wilson, Spence, and Mawman, York.		1985	1845
198		Dodo Press		1864	1894
199		Saddleback Educational Publishing, Inc.		1999	1895
200		Signet Classics		1982	1896
201		Detskaya literatura		2000	1897
202		Atheneum		1995	1890
203		Golden Press		1957	1892
204		Broadview Press		1951	1814
205		Ams Pr Inc		1949	1815
206		W. Baynes		1875	1816
207		Dutton		1994	1810
208		Printed and sold [by T. & J. Fleet] at the Bible & Heart, in Cornhill.		1978	1811
209		The John C. Winston Company		2003	1812
210		printed for William Lane		2001	1813
211		Printed by John Tiebout, no. 246, Water-Street.		1988	1964
212		Printed by H. & E. Phinney		1983	1965
213		Published and sold by the booksellers, and by T. Wilson and Son, printers		1840	1966
214		Houghton Mifflin		1994	1967
215		University Microfilms		1996	1818
216		J.M. Dent & Sons		1954	1819
217		Penguin		1979	1962
218		B. C. Buzby		1983	1963
219		Maynard, Merrill & co.		2001	December 1962
220		James Burns		1985	July 1970
221		Wordsworth Classics		1991	1769
222		Cosmopolitan Book Corp.		1974	1755
223		Ueberreuter		1993	1752
224		Hubbard Bros.		1988	1750
225		Classic Books		1993	February 1995
226		Routledge		1980	September 1, 1997
227		Penguin Books Ltd		1989	June 30, 2002
228		Signet Classic		1952	November 3, 1992
229		Metallurgiya		1900	March 2, 2007
230		Purnell		1967	July 25, 2007
231		printed for S. Crowder; J. Sewell; W. Johnston; and B. Law		1973	June 30, 2004
232		Apud autorem, viâ San-Jacobæâ, in Lycæo imperiali.		1966	July 25, 2005
233		Printed by William Woodhouse		1855	June 1982
234		Hard Press		1988	June 1981
235		Playmore, Inc.		1996	June 1986
236		Book Essentials Promotions		1993	1889
237		Ward Lock		2001	1888
238		Bookcassette		1995	July 14, 2006
239		P&R Pub.		2006	1968
240		printed by P. Wogan		1990	1885
241		From Sidney's Press		2002	1884
242		Scribners		2000	1883
243		Core Knowledge Foundation		2005	1882
244		The Peter Pauper press		2002	1880
245		S.O. Beeton		1993	1807
246		Constable		1993	1806
247		printed for J. Browne		1988	1805
248		Penguin Children's Audiobooks		2009	1804
249		printed by and for W. Darling, and sold by the booksellers in town and country		1869	1803
250		Printed by E. & E. Hosford		1875	1802
251		Trident Press International		1840	1979
252		printed by W.M. Shelmerdine and Co.		1929	1800
253		printed for, and sold by Alex McCaslan		1883	1977
254		Pearson ESL		1861	1976
255		JM Ediciones		2009	1975
256		Printed and sold by W. Durell, at his book store & printing office; no 19 Queen Street.		2009	1974
257		F. C. and J. Rivington; etc., etc.		2009	1973
258		J and H International		2009	1972
259		Andres Bello		2005	1809
260		cbj		2008	1808
261		L'Honoré & Chatelain		2005	2002
262		Masadah		1900	May 12, 1986
263		O.U.P		1881	1768
264		Bookthrift Co		1989	187u
265		Random Library		2006	2006
266		Printed at Osborne's office, Market-Square, Newburyport.		1800	2007
267		E. Stock		1972	2004
268		Printed & sold by Peter Brynberg.		2007	2005
269		Henry Altemus Co.		2001	August 31, 2004
270		Dent		2007	2008
271		Printed and sold by Thomas B. Wait.		1978	2009
272		Distributed in the USA and Canada by Word Books		1976	1765
273		J.B. Lippincott Co.		1920	2000
274		printed for T. Woodward; and sold by J. Osborn		1978	2014
275		Macmillian & co., ltd.		2005	May 5, 2006
276		printed for A. Millar, W. Law, and R. Cater; and for Wilson, Spence, and Mawman, York. Anno		1983	January 30, 2006
277		Taggard & Thompson		1983	March 5, 2006
278		Brilliance Audio on CD Unabridged Lib Ed		1964	February 5, 2006
279		H. Milford, Oxford University Press		2002	September 1, 2000
280		T. Y. Crowell		2010	October 1, 2002
281		E. Hannaford & Co.		2012	January 1, 2000
282		printed by A. Donaldson, and sold at his shops in London and Edinburgh		1884	January 1, 1996
283		Printed and sold by J. White and C. Cambridge, near Charles-River Bridge.		2002	September 10, 1985
284		Sun Ya		1995	December 12, 1988
285		Random House Publishing Group		2009	1985
286		Printed by William Warner		1967	1864
287		Franckh'sche Velagshandlung		1999	October 1999
288		Hsi tai shu pan ku fen yu hsien kung ssu		1991	June 1, 1982
289		Holden, printer		1984	August 17, 2000
290		printed in the year		2003	October 12, 1995
291		Nonesuch P.		1900	1957
292		H. Frowde, Oxford University Press		2003	1951
293		printed by J. Fletcher, for T. Craig, in Nantwich		2006	1949
294		Everyman's Library		2004	1875
295		Pendulum Pr		1918	June 1, 1994
296		Printed by J. Gold ... and published by Joseph Mawman ...		2005	June 1994
297		Children's Classics		1859	1978
298		H. Altemus Company		1840	2003
299		Riverside Press		1811	2001
300		Parents' Magazine's Cultural Institute		1870	October 1988
301		Pravda		1876	1988
302		Macmillan & Co.		1931	1983
303		Cassell, Petter & Galpin		1969	1840
304		Macmillan and Co.		1862	September 1994
305		World Pub. Co.		1890	June 1996
306		Benjamin Johnson			December 1954
307		Printed for J. Fuller at No. 6, Ave-Maria Lane.			1979
308		Printed by Warner & Hanna			1983
309		Porrúa			May 1, 2001
310		printed by J. Dean			1985
311		James Miller			1991
312		Rand McNally			November 1974
313		Dean & son			December 1993
314		Edc Pub (Lib)			December 12, 1988
315		George Routledge and Sons			June 1993
316		printed at the Logographic Press, and sold by J. Walter; T. Hookham; W. Richardson; and M. Wilson			1980
317		Gedruckt bey Carl Cist, in der Rehs-Strasse, zwischen Front- und Zweyten-Strasse.			January 25, 1989
318		Printed and sold by Samuel Hall, no. 53, Cornhill.			1952
319		A.L. Bancroft & Co.			1900
320		Troll Communications			1967
321		Printed by Hugh Gaine, at his book-store in Hanover-Square, where may be had a great variety of little books for young masters and misses.			1973
322		Printed by L. Cameron			1966
323		The Macmillian company			1855
324		printed, for A. Bettesworth; J. Brotherton, W. Meadows; and E. Midwinter			December 12, 1988
325		printed at the Logographic Press, and sold by J. Walter			August 1996
326		Basilisk Press			September 1, 1993
327		From Sydney's Press			December 2001
328		printed and sold by J. Hollis			September 1995
329		SVE			February 2006
330		Nelson			January 1, 1990
331		printeed [sic] by J. Nuttall, for Lackington Allen and Co. and W. Baynes, London; J. Hemingway, Blackburn; W. Bibby, Chorley			July 31, 2002
332		New American Library			October 15, 2000
333		The Macmillan co.			June 30, 2005
334		printed for P. Byrne			October 4, 2002
335		Tandem Library			August 1993
336		Heron Books			1993
337		Printed by John Adams			April 1988
338		Konemann			2009
339		Barbour Publishing			1869
340		Ward, Lock & Co.			1875
341		Hurst and Company			1840
342		Cassell & company, limited			1929
343		Goerge Routledge & Sons			1883
344		Pub. for the Classics Club by W. J. Black			1861
345		Bikher-far-ale			2009
346		AMS Press			2009
347		Norton			2009
348		Merrimack Pub.			2009
349		Printed & sold by F. Houlston & Son; sold also by Crosby and Co. Paternoster row, London; and by all other booksellers			2005
350		Printed by E. and E. Hosford			2008
351		McLoughlin Bros.			2005
352		1st World Library			1900
353		Henry Lea, 112 Fleet Street, E.C., and all booksellers			1881
354		Printed for C. Hitch at the Red-Lyon ... R. Ware at the Bible and Sun ... and J. Hodges at the Looking-Glass ...			1989
355		Printed by J. Gold ... and published by Joseph Mawman			2006
356		J. Stockdale			1800
357		Bliss, Sands, and Foster			1972
358		Penguin Books			2007
359		printed and published by J.Walker			March 2001
360		George Long			2007
361		Courage Books			1978
362		Chatto & Windus			1976
363		Dutton Everyman's Library			1920
364		The Franklin Library			1978
365		From Park's Press			2005
366		Doubleday Classics			1983
367		Lulu.com			1983
368		Xerais			1964
369		Librairie des Bibliophiles			2002
370		Cosmopolitan Book Corporation			2010
371		Limited Editions Club			2012
372		Johnson & Warner			1884
373		Acme Acme			2002
374		Blackwell Publishers			1995
375		Brilliance Audio on CD Unabridged			2009
376		In Audio			1967
377		printed by W. Darling			October 25, 1999
378		Mame et Fils			1991
379		Goodwyn & Co.			1984
380		Hutchinson			2003
381		printed for George Golding, and Isaac Jackson			1900
382		McKay			January 31, 2005
383		Printed for C. Hitch, at the Red Lyon, in Pater-Noster-Row; R. Ware, at the Bible and Sun. on Ludgate-Hill; and J. Hodges, at the Looking-Glass on London Bridge.			August 2003
384		Printed for W. Taylor ...			June 30, 2006
385		Thompson & Thomas			February 28, 2006
386		Shi Jie Pub. Co.			1918
387		J.G. Ferguson Pub. Co.			2004
388		Tom Doherty Assoc Llc			June 17, 2004
389		Leavitt and Allen Bros.			1859
390		Printed by C.R. & G. Webster, at their office, in State-Street, where printing in general, in the English and German languages, is performed with expedition and on reasonable terms.			1840
391		F. Etchells & Macdonald			1811
392		William Clowes			1870
393		Published by Abel Brown			1876
394		Kessinger Publishing, LLC			1931
395		DK Pub.			1969
396		Printed by David Watson			1862
397		Sterling Pub.			1890
398		ABDO Pub.			
399		ICON Group International, Inc.			
400		Blackie			
401		printed by J.G.A. Stoupe			
402		Da xia chu ban she			
403		Printed for the booksellers			
404		Globe Fearon			
405		Insel			
406		De Wolfe, Fiske & Co.			
407		Basil Blackwell			
408		Multnomah Press			
409		Dodd, Mead and company			
410		Spencer Press			
411		Goltz			
412		IndyPublish.com			
413		Printed and sold by Thomas B. Wait			
414		The Easton Press			
415		darulfikir 			
416		Könemann Verlagsgesellschaft mbH, Köln.			
417		Susaeta			
418		Icon Reference			
419		ICON Reference			
420		Cornelsen			
421		Klett			
422		Langensch.-Hachette, M			
423		Cornelsen & Oxford University Press			
424		Random House Value Publishing			
425		L. Prang & Co.			
426		L. Prang			
427		Library of Congress			
428		Bantam Classics			
429		Tandem Library			
430		Oxford University Press			
431		Aladdin Books			
432		Bét māḥtām mangeśt			
433		French			
434		B.F. Sterett			
435		American Guidance Service			
436		Lake Publishing Company (CA)			
437		Josef Weinberger			
438		Weinberger			
439		Learning Challenge			
440		Masterwork Books			
441		Little Apple			
442		SM			
443		Práce			
444		Yorkshire J.S. Publishing & Stationery Co.			
445		Bantam Books(Classic & Loveswept)			
446		Palgrave Macmillan			
447		Anchorage Press			
448		G. Allen & Unwin			
449		S. French			
450		Tivola Electronic Publishing			
451		Sine nomine			
452		Twayne			
453		Harcourt			
454		Oxford University Press			
455		Random House Value Publishing			
456		Globe Fearon			
457		Flammarion			
458		Scandinavia			
459		French			
460		Bancroft			
461		Lettres Modernes			
462		Scholastic			
463		Monarch Press			
464		Brown, Loomis & Co.			
465		Random House Value Publishing			
466		Palgrave Macmillan			
467		Panamericana Editorial Ltda.			
468		LRS (Library Reproduction Service)			
469		Naxos Audiobooks Ltd.			
470		Book Sales			
471		Egmont Childrens Books			
472		In Audio			
473		Express Publishing			
474		Alianza			
475		P & R Publishing			
476		Oxford University Press			
477		Jasper			
478		Addison Wesley Publishing Company			
479		Kalyani Navyug Media			
480		McLoughlin Bros. & Co., publishers, N.Y.			
481		McLoughlin Bros.			
482		Yorkshire J.S. Publishing & Stationery Co.			
483		French			
484		Sine nomine			
485		Thomas Hailes Lacy			
486		Kalyani Navyug Media			
487		Cambridge University Press			
488		Cambridge University Press			
489		Kalyani Navyug Media			
490		ICON Classics			
491		Oxford University Press			
492		ICON Classics			
493		Henry Altemus			
494		Macmillan			
495		Crossway Books			
496		Sterling Pub.			
497		M'corquodale			
498		Evans Plays			
499		Oxford University Press			
500		Rebound by Sagebrush			
501		Spotlight			
502		Pendulum Press			
503		Cliffs Notes			
504		David McKay			
505		Ladybird Books			
506		Castellnou			
507		Anaya			
508		Rand McNally			
509		Scholastic			
510		Valdemar			
511		Campfire			
512		Scandinavia Publishing House			
513		Oscar. L. Lamm			
514		[John Wiley & Sons]			
515		Dover Publications			
516		Windmill Books			
517		Evans Bros.			
518		Fearon Publishers			
519		Naxos Audiobooks			
520		Twayne			
521		Silver Burdett			
522		Scholastic			
523		Gerlach & Wiedling			
524		1st World Library			
525		IndyPublish.com			
526		Dodo Press			
527		Kessinger Publishing			
528		Educational Publishing Company			
529		Garnier frères			
530		Theodore Lefevre, editeur...			
531		Garnier frères			
532		H. Fournier Ainé			
533		Harper			
534		Greenwood Press			
535		P. Smith			
536		Harper & brothers			
537		Lee and Shepard			
